{
    "swagger": "2.0",
    "info": {
        "title": "Roop Heritage",
        "contact": {
            "name": "Gaurav sethi",
            "url": "mailto:ergauravsethi376@gmail.com"
        },
        "version": "0.1.0"
    },
    "host": "roopheritage.in/api/public",
    "basePath": "",
    "schemes": [
        "http"
    ],
    "paths": {
        "/api/login": {
            "post": {
                "tags": [
                    "Authentication"
                ],
                "summary": "Login User",
                "description": "Returns User object.",
                "operationId": "api.Login",
                "produces": [
                    "application/json"
                ],
                "parameters": [
                    {
                        "name": "client_id",
                        "in": "header",
                        "description": "Authorization",
                        "required": true,
                        "type": "string",
                        "default": "1"
                    },
                    {
                        "name": "client_secret",
                        "in": "header",
                        "description": "Authorization",
                        "required": true,
                        "type": "string",
                        "default": "pOdUmjMP6gOyrVUvs3F7omiCpNu2yCP7lBtuKgLG"
                    },
                    {
                        "name": "device_id",
                        "in": "header",
                        "description": "Authorization",
                        "required": true,
                        "type": "string"
                    },
                    {
                        "name": "device_token",
                        "in": "header",
                        "description": "Authorization",
                        "required": true,
                        "type": "string"
                    },
                    {
                        "name": "device_type",
                        "in": "header",
                        "description": "Authorization [ios|android]",
                        "required": true,
                        "type": "enum"
                    },
                    {
                        "name": "username",
                        "in": "query",
                        "description": "Username",
                        "required": true,
                        "type": "string"
                    },
                    {
                        "name": "password",
                        "in": "query",
                        "description": "Password",
                        "required": true,
                        "type": "string"
                    }
                ],
                "responses": {
                    "200": {
                        "description": "Login Successfully",
                        "example": {
                            "success": {
                                "User": {
                                    "id": 1,
                                    "username": "admin",
                                    "name": "Administrator",
                                    "avatar": "images/roopheritage.jpg",
                                    "created_at": "2018-05-23 17:21:26",
                                    "updated_at": "2018-05-23 18:06:39"
                                }
                            }
                        }
                    },
                    "422": {
                        "description": "Something Went Wrong.",
                        "example": {
                            "status": false,
                            "data": [],
                            "error": {
                                "code": 400,
                                "error_message": {
                                    "message": "Please provide the required parameters"
                                }
                            }
                        }
                    }
                }
            }
        },
        "/api/customers": {
            "post": {
                "tags": [
                    "Customer"
                ],
                "summary": "Customer List",
                "description": "Returns Customer object.",
                "operationId": "api.customers",
                "produces": [
                    "application/json"
                ],
                "parameters": [
                    {
                        "name": "client_id",
                        "in": "header",
                        "description": "Authorization",
                        "required": true,
                        "type": "string",
                        "default": "1"
                    },
                    {
                        "name": "client_secret",
                        "in": "header",
                        "description": "Authorization",
                        "required": true,
                        "type": "string",
                        "default": "pOdUmjMP6gOyrVUvs3F7omiCpNu2yCP7lBtuKgLG"
                    },
                    {
                        "name": "device_id",
                        "in": "header",
                        "description": "Authorization",
                        "required": true,
                        "type": "string"
                    },
                    {
                        "name": "device_token",
                        "in": "header",
                        "description": "Authorization",
                        "required": true,
                        "type": "string"
                    },
                    {
                        "name": "device_type",
                        "in": "header",
                        "description": "Authorization [ios|android]",
                        "required": true,
                        "type": "enum"
                    },
                    {
                        "name": "offset",
                        "in": "query",
                        "description": "offset",
                        "required": true,
                        "type": "string"
                    },
                    {
                        "name": "limit",
                        "in": "query",
                        "description": "Limit",
                        "required": true,
                        "type": "string"
                    }
                ],
                "responses": {
                    "200": {
                        "description": "Customer List",
                        "example": {
                            "status": true,
                            "code": 200,
                            "data": {
                                "customers": {
                                    "id": 2,
                                    "name": "gaurav",
                                    "email": "gauravsethi376@gmail.com",
                                    "gender": "FEMALE",
                                    "address": "house number 348/2, Sector 45 A",
                                    "dob": "2018-05-23",
                                    "mobile": "9646848501",
                                    "state": "0",
                                    "created_at": "2018-05-26 10:38:49",
                                    "updated_at": "2018-05-26 13:17:32"
                                }
                            }
                        }
                    },
                    "422": {
                        "description": "Something Went Wrong.",
                        "example": {
                            "status": false,
                            "data": [],
                            "error": {
                                "code": 400,
                                "error_message": {
                                    "message": "Please provide the required parameters"
                                }
                            }
                        }
                    }
                }
            }
        },
        "/api/customer/{id}": {
            "get": {
                "tags": [
                    "Customer"
                ],
                "summary": "Customer Object",
                "description": "Returns Customer object.",
                "operationId": "api.customer",
                "produces": [
                    "application/json"
                ],
                "parameters": [
                    {
                        "name": "client_id",
                        "in": "header",
                        "description": "Authorization",
                        "required": true,
                        "type": "string",
                        "default": "1"
                    },
                    {
                        "name": "client_secret",
                        "in": "header",
                        "description": "Authorization",
                        "required": true,
                        "type": "string",
                        "default": "pOdUmjMP6gOyrVUvs3F7omiCpNu2yCP7lBtuKgLG"
                    },
                    {
                        "name": "device_id",
                        "in": "header",
                        "description": "Authorization",
                        "required": true,
                        "type": "string"
                    },
                    {
                        "name": "device_token",
                        "in": "header",
                        "description": "Authorization",
                        "required": true,
                        "type": "string"
                    },
                    {
                        "name": "device_type",
                        "in": "header",
                        "description": "Authorization [ios|android]",
                        "required": true,
                        "type": "enum"
                    }
                ],
                "responses": {
                    "200": {
                        "description": "Customer object",
                        "example": {
                            "status": true,
                            "code": 200,
                            "data": {
                                "customer": {
                                    "id": 2,
                                    "name": "gaurav",
                                    "email": "gauravsethi376@gmail.com",
                                    "gender": "FEMALE",
                                    "address": "house number 348/2, Sector 45 A",
                                    "dob": "2018-05-23",
                                    "mobile": "9646848501",
                                    "state": "0",
                                    "created_at": "2018-05-26 10:38:49",
                                    "updated_at": "2018-05-26 13:17:32"
                                }
                            }
                        }
                    },
                    "422": {
                        "description": "Something Went Wrong.",
                        "example": {
                            "status": false,
                            "data": [],
                            "error": {
                                "code": 400,
                                "error_message": {
                                    "message": "Please provide the required parameters"
                                }
                            }
                        }
                    }
                }
            }
        },
        "/api/customer/create": {
            "post": {
                "tags": [
                    "Customer"
                ],
                "summary": "Create Customer",
                "description": "Returns creation of customer message.",
                "operationId": "api.customers.create",
                "produces": [
                    "application/json"
                ],
                "parameters": [
                    {
                        "name": "client_id",
                        "in": "header",
                        "description": "Authorization",
                        "required": true,
                        "type": "string",
                        "default": "1"
                    },
                    {
                        "name": "client_secret",
                        "in": "header",
                        "description": "Authorization",
                        "required": true,
                        "type": "string",
                        "default": "pOdUmjMP6gOyrVUvs3F7omiCpNu2yCP7lBtuKgLG"
                    },
                    {
                        "name": "device_id",
                        "in": "header",
                        "description": "Authorization",
                        "required": true,
                        "type": "string"
                    },
                    {
                        "name": "device_token",
                        "in": "header",
                        "description": "Authorization",
                        "required": true,
                        "type": "string"
                    },
                    {
                        "name": "device_type",
                        "in": "header",
                        "description": "Authorization [ios|android]",
                        "required": true,
                        "type": "enum"
                    },
                    {
                        "name": "name",
                        "in": "query",
                        "description": "name",
                        "required": true,
                        "type": "string"
                    },
                    {
                        "name": "mobile_no",
                        "in": "query",
                        "description": "mobile_no",
                        "required": true,
                        "type": "string"
                    },
                    {
                        "name": "gender",
                        "in": "query",
                        "description": "m -> Male and f -> female",
                        "required": true,
                        "type": "string"
                    },
                    {
                        "name": "address",
                        "in": "query",
                        "description": "address",
                        "required": true,
                        "type": "string"
                    },
                    {
                        "name": "dob",
                        "in": "query",
                        "description": "dob",
                        "required": true,
                        "type": "string"
                    },
                    {
                        "name": "spouse_name",
                        "in": "query",
                        "description": "spouse_name",
                        "required": false,
                        "type": "string"
                    },
                    {
                        "name": "date_anniversary",
                        "in": "query",
                        "description": "date_anniversary required if spouse name is filled",
                        "required": false,
                        "type": "string"
                    }
                ],
                "responses": {
                    "200": {
                        "description": "Customer List",
                        "example": {
                            "status": true,
                            "code": 201,
                            "data": {
                                "message": "Created Successfully",
                                "customer_id": 37
                            }
                        }
                    },
                    "422": {
                        "description": "Something Went Wrong.",
                        "example": {
                            "status": false,
                            "data": [],
                            "error": {
                                "code": 400,
                                "error_message": {
                                    "message": "Please provide the required parameters"
                                }
                            }
                        }
                    }
                }
            }
        },
        "/api/customer/update/{customer_id}": {
            "post": {
                "tags": [
                    "Customer"
                ],
                "summary": "Update Customer",
                "description": "Returns updation of customer message.",
                "operationId": "api.customers.update",
                "produces": [
                    "application/json"
                ],
                "parameters": [
                    {
                        "name": "client_id",
                        "in": "header",
                        "description": "Authorization",
                        "required": true,
                        "type": "string",
                        "default": "1"
                    },
                    {
                        "name": "client_secret",
                        "in": "header",
                        "description": "Authorization",
                        "required": true,
                        "type": "string",
                        "default": "pOdUmjMP6gOyrVUvs3F7omiCpNu2yCP7lBtuKgLG"
                    },
                    {
                        "name": "device_id",
                        "in": "header",
                        "description": "Authorization",
                        "required": true,
                        "type": "string"
                    },
                    {
                        "name": "device_token",
                        "in": "header",
                        "description": "Authorization",
                        "required": true,
                        "type": "string"
                    },
                    {
                        "name": "device_type",
                        "in": "header",
                        "description": "Authorization [ios|android]",
                        "required": true,
                        "type": "enum"
                    },
                    {
                        "name": "name",
                        "in": "query",
                        "description": "name",
                        "required": true,
                        "type": "string"
                    },
                    {
                        "name": "mobile_no",
                        "in": "query",
                        "description": "mobile_no",
                        "required": true,
                        "type": "string"
                    },
                    {
                        "name": "gender",
                        "in": "query",
                        "description": "m -> Male and f -> female",
                        "required": true,
                        "type": "string"
                    },
                    {
                        "name": "address",
                        "in": "query",
                        "description": "address",
                        "required": true,
                        "type": "string"
                    },
                    {
                        "name": "dob",
                        "in": "query",
                        "description": "dob",
                        "required": true,
                        "type": "string"
                    },
                    {
                        "name": "spouse_name",
                        "in": "query",
                        "description": "spouse_name",
                        "required": false,
                        "type": "string"
                    },
                    {
                        "name": "date_anniversary",
                        "in": "query",
                        "description": "date_anniversary required if spouse name is filled",
                        "required": false,
                        "type": "string"
                    }
                ],
                "responses": {
                    "200": {
                        "description": "Customer List",
                        "example": {
                            "status": true,
                            "code": 201,
                            "data": {
                                "message": "Updated Successfully",
                                "customer_id": 37
                            }
                        }
                    },
                    "422": {
                        "description": "Something Went Wrong.",
                        "example": {
                            "status": false,
                            "data": [],
                            "error": {
                                "code": 400,
                                "error_message": {
                                    "message": "Please provide the required parameters"
                                }
                            }
                        }
                    }
                }
            }
        },
        "/api/products": {
            "post": {
                "tags": [
                    "Product"
                ],
                "summary": "Product List",
                "description": "Returns Product object.",
                "operationId": "api.products",
                "produces": [
                    "application/json"
                ],
                "parameters": [
                    {
                        "name": "client_id",
                        "in": "header",
                        "description": "Authorization",
                        "required": true,
                        "type": "string",
                        "default": "1"
                    },
                    {
                        "name": "client_secret",
                        "in": "header",
                        "description": "Authorization",
                        "required": true,
                        "type": "string",
                        "default": "pOdUmjMP6gOyrVUvs3F7omiCpNu2yCP7lBtuKgLG"
                    },
                    {
                        "name": "device_id",
                        "in": "header",
                        "description": "Authorization",
                        "required": true,
                        "type": "string"
                    },
                    {
                        "name": "device_token",
                        "in": "header",
                        "description": "Authorization",
                        "required": true,
                        "type": "string"
                    },
                    {
                        "name": "device_type",
                        "in": "header",
                        "description": "Authorization [ios|android]",
                        "required": true,
                        "type": "enum"
                    },
                    {
                        "name": "offset",
                        "in": "query",
                        "description": "offset",
                        "required": true,
                        "type": "string"
                    },
                    {
                        "name": "limit",
                        "in": "query",
                        "description": "Limit",
                        "required": true,
                        "type": "string"
                    }
                ],
                "responses": {
                    "200": {
                        "description": "Customer List",
                        "example": {
                            "status": true,
                            "code": 200,
                            "data": {
                                "products": {
                                    "id": 1,
                                    "party_name": "party",
                                    "name": "suit2",
                                    "description": null,
                                    "hsn_code": "hsn code2",
                                    "quantity_type": "m",
                                    "quantity": "12",
                                    "cost_price": "12",
                                    "selling_price": 190,
                                    "tax_type": "igst",
                                    "image": null,
                                    "notify_on": "2",
                                    "params": null,
                                    "state": "0",
                                    "created_at": "2018-06-24 15:12:52",
                                    "updated_at": "2018-06-24 15:13:37",
                                    "deleted_at": null,
                                    "created_by": 1,
                                    "updated_by": 1
                                },
                                "0": {
                                    "id": 2,
                                    "party_name": "party 2",
                                    "name": "suit",
                                    "description": null,
                                    "hsn_code": "hsn",
                                    "quantity_type": "p",
                                    "quantity": "18",
                                    "cost_price": "97db",
                                    "selling_price": 980,
                                    "tax_type": "CGST",
                                    "image": null,
                                    "notify_on": "2",
                                    "params": null,
                                    "state": "0",
                                    "created_at": "2018-06-24 15:15:45",
                                    "updated_at": "2018-06-24 15:15:45",
                                    "deleted_at": null,
                                    "created_by": 1,
                                    "updated_by": 1
                                }
                            }
                        }
                    },
                    "422": {
                        "description": "Something Went Wrong.",
                        "example": {
                            "status": false,
                            "data": [],
                            "error": {
                                "code": 400,
                                "error_message": {
                                    "message": "Please provide the required parameters"
                                }
                            }
                        }
                    }
                }
            }
        },
        "/api/product/{id}": {
            "get": {
                "tags": [
                    "Product"
                ],
                "summary": "Product Object",
                "description": "Returns Product object.",
                "operationId": "api.product",
                "produces": [
                    "application/json"
                ],
                "parameters": [
                    {
                        "name": "client_id",
                        "in": "header",
                        "description": "Authorization",
                        "required": true,
                        "type": "string",
                        "default": "1"
                    },
                    {
                        "name": "client_secret",
                        "in": "header",
                        "description": "Authorization",
                        "required": true,
                        "type": "string",
                        "default": "pOdUmjMP6gOyrVUvs3F7omiCpNu2yCP7lBtuKgLG"
                    },
                    {
                        "name": "device_id",
                        "in": "header",
                        "description": "Authorization",
                        "required": true,
                        "type": "string"
                    },
                    {
                        "name": "device_token",
                        "in": "header",
                        "description": "Authorization",
                        "required": true,
                        "type": "string"
                    },
                    {
                        "name": "device_type",
                        "in": "header",
                        "description": "Authorization [ios|android]",
                        "required": true,
                        "type": "enum"
                    }
                ],
                "responses": {
                    "200": {
                        "description": "Customer object",
                        "example": {
                            "status": true,
                            "code": 200,
                            "data": {
                                "product": {
                                    "id": 3,
                                    "party_name": "gaurav",
                                    "name": "hghjgj",
                                    "description": null,
                                    "hsn_code": "h23jhg3",
                                    "quantity_type": "m",
                                    "quantity": "12",
                                    "cost_price": "3223s",
                                    "selling_price": 32,
                                    "tax_type": "igst",
                                    "image": null,
                                    "notify_on": "2",
                                    "params": null,
                                    "state": "0",
                                    "created_at": "2018-06-30 10:36:22",
                                    "updated_at": "2018-06-30 10:36:22",
                                    "deleted_at": null,
                                    "created_by": 1,
                                    "updated_by": 1
                                }
                            }
                        }
                    },
                    "422": {
                        "description": "Something Went Wrong.",
                        "example": {
                            "status": false,
                            "data": [],
                            "error": {
                                "code": 400,
                                "error_message": {
                                    "message": "Please provide the required parameters"
                                }
                            }
                        }
                    }
                }
            }
        },
        "/api/product/create": {
            "post": {
                "tags": [
                    "Product"
                ],
                "summary": "Create Product",
                "description": "Returns creation of product message.",
                "operationId": "api.product.create",
                "produces": [
                    "application/json"
                ],
                "parameters": [
                    {
                        "name": "client_id",
                        "in": "header",
                        "description": "Authorization",
                        "required": true,
                        "type": "string",
                        "default": "1"
                    },
                    {
                        "name": "client_secret",
                        "in": "header",
                        "description": "Authorization",
                        "required": true,
                        "type": "string",
                        "default": "pOdUmjMP6gOyrVUvs3F7omiCpNu2yCP7lBtuKgLG"
                    },
                    {
                        "name": "device_id",
                        "in": "header",
                        "description": "Authorization",
                        "required": true,
                        "type": "string"
                    },
                    {
                        "name": "device_token",
                        "in": "header",
                        "description": "Authorization",
                        "required": true,
                        "type": "string"
                    },
                    {
                        "name": "device_type",
                        "in": "header",
                        "description": "Authorization [ios|android]",
                        "required": true,
                        "type": "enum"
                    },
                    {
                        "name": "party_name",
                        "in": "query",
                        "description": "party_name",
                        "required": true,
                        "type": "string"
                    },
                    {
                        "name": "name",
                        "in": "query",
                        "description": "name",
                        "required": true,
                        "type": "string"
                    },
                    {
                        "name": "hsn_code",
                        "in": "query",
                        "description": "hsn_code have to be unique allways",
                        "required": true,
                        "type": "string"
                    },
                    {
                        "name": "quantity_type",
                        "in": "query",
                        "description": "have to be in m->Meter or p->piece ",
                        "required": true,
                        "type": "string"
                    },
                    {
                        "name": "cost_price",
                        "in": "query",
                        "description": "cost_price",
                        "required": true,
                        "type": "string"
                    },
                    {
                        "name": "selling_price",
                        "in": "query",
                        "description": "selling_price",
                        "required": false,
                        "type": "integer"
                    },
                    {
                        "name": "tax_type",
                        "in": "query",
                        "description": "tax_type",
                        "required": false,
                        "type": "string"
                    },
                    {
                        "name": "notify_on",
                        "in": "query",
                        "description": "notify_on",
                        "required": false,
                        "type": "integer"
                    }
                ],
                "responses": {
                    "200": {
                        "description": "Product List",
                        "example": {
                            "status": true,
                            "code": 201,
                            "data": {
                                "message": "Created Successfully",
                                "customer_id": 37
                            }
                        }
                    },
                    "422": {
                        "description": "Something Went Wrong.",
                        "example": {
                            "status": false,
                            "data": [],
                            "error": {
                                "code": 400,
                                "error_message": {
                                    "message": "Please provide the required parameters"
                                }
                            }
                        }
                    }
                }
            }
        },
        "/api/product/update/{id}": {
            "post": {
                "tags": [
                    "Product"
                ],
                "summary": "Update Product",
                "description": "Returns Update of product message.",
                "operationId": "api.product.update",
                "produces": [
                    "application/json"
                ],
                "parameters": [
                    {
                        "name": "client_id",
                        "in": "header",
                        "description": "Authorization",
                        "required": true,
                        "type": "string",
                        "default": "1"
                    },
                    {
                        "name": "client_secret",
                        "in": "header",
                        "description": "Authorization",
                        "required": true,
                        "type": "string",
                        "default": "pOdUmjMP6gOyrVUvs3F7omiCpNu2yCP7lBtuKgLG"
                    },
                    {
                        "name": "device_id",
                        "in": "header",
                        "description": "Authorization",
                        "required": true,
                        "type": "string"
                    },
                    {
                        "name": "device_token",
                        "in": "header",
                        "description": "Authorization",
                        "required": true,
                        "type": "string"
                    },
                    {
                        "name": "device_type",
                        "in": "header",
                        "description": "Authorization [ios|android]",
                        "required": true,
                        "type": "enum"
                    },
                    {
                        "name": "party_name",
                        "in": "query",
                        "description": "party_name",
                        "required": true,
                        "type": "string"
                    },
                    {
                        "name": "name",
                        "in": "query",
                        "description": "name",
                        "required": true,
                        "type": "string"
                    },
                    {
                        "name": "hsn_code",
                        "in": "query",
                        "description": "hsn_code have to be unique allways",
                        "required": true,
                        "type": "string"
                    },
                    {
                        "name": "quantity_type",
                        "in": "query",
                        "description": "have to be in m->Meter or p->piece ",
                        "required": true,
                        "type": "string"
                    },
                    {
                        "name": "cost_price",
                        "in": "query",
                        "description": "cost_price",
                        "required": true,
                        "type": "string"
                    },
                    {
                        "name": "selling_price",
                        "in": "query",
                        "description": "selling_price",
                        "required": false,
                        "type": "integer"
                    },
                    {
                        "name": "tax_type",
                        "in": "query",
                        "description": "tax_type",
                        "required": false,
                        "type": "string"
                    },
                    {
                        "name": "notify_on",
                        "in": "query",
                        "description": "notify_on",
                        "required": false,
                        "type": "integer"
                    }
                ],
                "responses": {
                    "200": {
                        "description": "Product Succefully",
                        "example": {
                            "status": true,
                            "code": 201,
                            "data": {
                                "message": "Updated Successfully",
                                "customer_id": 37
                            }
                        }
                    },
                    "422": {
                        "description": "Something Went Wrong.",
                        "example": {
                            "status": false,
                            "data": [],
                            "error": {
                                "code": 400,
                                "error_message": {
                                    "message": "Please provide the required parameters"
                                }
                            }
                        }
                    }
                }
            }
        }
    },
    "definitions": {
        "Error": {
            "required": [
                "code",
                "message"
            ],
            "properties": {
                "code": {
                    "description": "Class ApiController",
                    "type": "integer",
                    "format": "int32"
                },
                "message": {
                    "description": "Class ApiController",
                    "type": "string"
                }
            }
        }
    }
}